34,Pankaj,IN,6.0,Wood,80.0,5.15,4.75,412.0,380.0,47.52,839.52,03112016
35,Brandon,IN,6.0,Wood,60.0,5.15,4.75,309.0,285.0,35.64,629.64,03112016
36,````,IN,6.0,Wood,80.0,5.15,4.75,412.0,380.0,47.52,839.52,03112016
