-------------------------------------------------------------------------------
Test set: NavBarLocationDaoUnitTest
-------------------------------------------------------------------------------
Tests run: 9, Failures: 0, Errors: 0, Skipped: 0, Time elapsed: 2.159 sec
