-------------------------------------------------------------------------------
Test set: tagDaoTest
-------------------------------------------------------------------------------
Tests run: 9, Failures: 0, Errors: 0, Skipped: 4, Time elapsed: 0.328 sec
